…
We then went on to deal with missing variables. Roughly 20% of the observations do not have data on `Age` and 2 observations do not have data on `Embarked`.

```
## Survived   Pclass      Sex      Age    SibSp    Parch     Fare Embarked 
##        0        0        0      177        0        0        0        2
```

We replaced all missing `Age` data with the median age and missing `Embarked` data with "S" (Southampton), which is where most passengers embarked.


### Splitting Data for Cross Validation
The test dataset does not have data on survival, so we had to use some of the observations in the train dataset to cross-validate our models before submitting to Kaggle. We randomly selected 80% of the train dataset for training and used the remaining 20% for cross-validation.

```
## # A tibble: 713 x 8
##    Survived Pclass   Sex   Age SibSp Parch    Fare Embarked
##       <int>  <int> <chr> <dbl> <int> <int>   <dbl>    <chr>
##  1        0      2  male  44.0     1     0 26.0000        S
##  2        0      1  male  45.5     0     0 28.5000        S
##  3        1      3  male  26.0     0     0 56.4958        S
##  4        0      1  male  39.0     0     0  0.0000        S
##  5        0      2  male  30.0     0     0 13.0000        S
##  6        0      2  male  39.0     0     0 13.0000        S
##  7        0      3  male  21.0     0     0  8.6625        S
##  8        0      3  male  28.0     0     0  8.7125        C
##  9        0      1  male  62.0     0     0 26.5500        S
## 10        0      1  male  65.0     0     1 61.9792        C
## # ... with 703 more rows
```

```
## # A tibble: 141 x 8
##    Survived Pclass    Sex   Age SibSp Parch     Fare Embarked
##       <int>  <int>  <chr> <dbl> <int> <int>    <dbl>    <chr>
##  1        1      1 female    38     1     0  71.2833        C
##  2        0      1   male    54     0     0  51.8625        S
##  3        1      3 female    27     0     2  11.1333        S
##  4        0      3   male    20     0     0   8.0500        S
##  5        0      3 female    14     0     0   7.8542        S
##  6        1      2   male    28     0     0  13.0000        S
##  7        0      2   male    35     0     0  26.0000        S
##  8        1      3 female    38     1     5  31.3875        S
##  9        0      1   male    19     3     2 263.0000        S
## 10        0      1   male    42     1     0  52.0000        S
## # ... with 131 more rows
```
…
